{
    "name": "Ignis.Unity.GitLab.CI",
    "rootNamespace": "Ignis.Unity.GitLab.CI",
    "references": [
        "GUID:8a552094e12e1624594cfbdf5f7b407a",
        "GUID:d528c8c98d269ca44a06cd9624a03945",
        "GUID:3bab21818e11eb94d961f91d3f57a264"
    ],
    "includePlatforms": [
        "Editor"
    ],
    "excludePlatforms": [],
    "allowUnsafeCode": false,
    "overrideReferences": false,
    "precompiledReferences": [],
    "autoReferenced": true,
    "defineConstraints": [],
    "versionDefines": [],
    "noEngineReferences": false
}